module my_logger

go 1.21

require (
	go.uber.org/zap v1.21.0
	gopkg.in/natefinch/lumberjack.v2 v2.0.0
)

require (
	github.com/BurntSushi/toml v1.0.0 // indirect
	go.uber.org/atomic v1.7.0 // indirect
	go.uber.org/multierr v1.6.0 // indirect
)
